%YAML 1.1
%TAG !u! tag:unity3d.com,2011:
--- !u!74 &7400000
AnimationClip:
  m_ObjectHideFlags: 0
  m_CorrespondingSourceObject: {fileID: 0}
  m_PrefabInstance: {fileID: 0}
  m_PrefabAsset: {fileID: 0}
  m_Name: Big Virus Small Orb Pulse
  serializedVersion: 6
  m_Legacy: 0
  m_Compressed: 0
  m_UseHighQualityCurve: 1
  m_RotationCurves: []
  m_CompressedRotationCurves: []
  m_EulerCurves: []
  m_PositionCurves: []
  m_ScaleCurves:
  - curve:
      serializedVersion: 2
      m_Curve:
      - serializedVersion: 3
        time: 0
        value: {x: 0.95030427, y: 1.0483001, z: 0.9993022}
        inSlope: {x: 0.000838029, y: 0.0007337983, z: 0}
        outSlope: {x: 0.000838029, y: 0.0007337983, z: 0}
        tangentMode: 0
        weightedMode: 3
        inWeight: {x: 0.33333334, y: 0.33333334, z: 0.33333334}
        outWeight: {x: 0.17098401, y: 0.17098401, z: 0.33333334}
      - serializedVersion: 3
        time: 0.93333334
        value: {x: 1.0483001, y: 0.95030427, z: 0.9993022}
        inSlope: {x: 0.0007712013, y: 0.00020582367, z: 0}
        outSlope: {x: 0.0007712013, y: 0.00020582367, z: 0}
        tangentMode: 0
        weightedMode: 3
        inWeight: {x: 0.17194884, y: 0.16462095, z: 0.33333334}
        outWeight: {x: 0.1622407, y: 0.16711235, z: 0.33333334}
      - serializedVersion: 3
        time: 1.8333334
        value: {x: 0.95030427, y: 1.0483001, z: 0.9993022}
        inSlope: {x: 0.0004171418, y: -0.000097592725, z: 0}
        outSlope: {x: 0.0004171418, y: -0.000097592725, z: 0}
        tangentMode: 0
        weightedMode: 3
        inWeight: {x: 0.17764053, y: 0.17033295, z: 0.33333334}
        outWeight: {x: 0.33333334, y: 0.33333334, z: 0.33333334}
      m_PreInfinity: 2
      m_PostInfinity: 2
      m_RotationOrder: 4
    path: 
  m_FloatCurves: []
  m_PPtrCurves: []
  m_SampleRate: 60
  m_WrapMode: 0
  m_Bounds:
    m_Center: {x: 0, y: 0, z: 0}
    m_Extent: {x: 0, y: 0, z: 0}
  m_ClipBindingConstant:
    genericBindings:
    - serializedVersion: 2
      path: 0
      attribute: 3
      script: {fileID: 0}
      typeID: 4
      customType: 0
      isPPtrCurve: 0
    pptrCurveMapping: []
  m_AnimationClipSettings:
    serializedVersion: 2
    m_AdditiveReferencePoseClip: {fileID: 0}
    m_AdditiveReferencePoseTime: 0
    m_StartTime: 0
    m_StopTime: 1.8333334
    m_OrientationOffsetY: 0
    m_Level: 0
    m_CycleOffset: 0
    m_HasAdditiveReferencePose: 0
    m_LoopTime: 1
    m_LoopBlend: 0
    m_LoopBlendOrientation: 0
    m_LoopBlendPositionY: 0
    m_LoopBlendPositionXZ: 0
    m_KeepOriginalOrientation: 0
    m_KeepOriginalPositionY: 1
    m_KeepOriginalPositionXZ: 0
    m_HeightFromFeet: 0
    m_Mirror: 0
  m_EditorCurves:
  - curve:
      serializedVersion: 2
      m_Curve:
      - serializedVersion: 3
        time: 0
        value: 0.95030427
        inSlope: 0.000838029
        outSlope: 0.000838029
        tangentMode: 0
        weightedMode: 3
        inWeight: 0.33333334
        outWeight: 0.17098401
      - serializedVersion: 3
        time: 0.93333334
        value: 1.0483001
        inSlope: 0.0007712013
        outSlope: 0.0007712013
        tangentMode: 0
        weightedMode: 3
        inWeight: 0.17194884
        outWeight: 0.1622407
      - serializedVersion: 3
        time: 1.8333334
        value: 0.95030427
        inSlope: 0.0004171418
        outSlope: 0.0004171418
        tangentMode: 0
        weightedMode: 3
        inWeight: 0.17764053
        outWeight: 0.33333334
      m_PreInfinity: 2
      m_PostInfinity: 2
      m_RotationOrder: 4
    attribute: m_LocalScale.x
    path: 
    classID: 4
    script: {fileID: 0}
  - curve:
      serializedVersion: 2
      m_Curve:
      - serializedVersion: 3
        time: 0
        value: 1.0483001
        inSlope: 0.0007337983
        outSlope: 0.0007337983
        tangentMode: 0
        weightedMode: 3
        inWeight: 0.33333334
        outWeight: 0.17098401
      - serializedVersion: 3
        time: 0.93333334
        value: 0.95030427
        inSlope: 0.00020582367
        outSlope: 0.00020582367
        tangentMode: 0
        weightedMode: 3
        inWeight: 0.16462095
        outWeight: 0.16711235
      - serializedVersion: 3
        time: 1.8333334
        value: 1.0483001
        inSlope: -0.000097592725
        outSlope: -0.000097592725
        tangentMode: 0
        weightedMode: 3
        inWeight: 0.17033295
        outWeight: 0.33333334
      m_PreInfinity: 2
      m_PostInfinity: 2
      m_RotationOrder: 4
    attribute: m_LocalScale.y
    path: 
    classID: 4
    script: {fileID: 0}
  - curve:
      serializedVersion: 2
      m_Curve:
      - serializedVersion: 3
        time: 0
        value: 0.9993022
        inSlope: 0
        outSlope: 0
        tangentMode: 136
        weightedMode: 3
        inWeight: 0.33333334
        outWeight: 0.33333334
      - serializedVersion: 3
        time: 0.93333334
        value: 0.9993022
        inSlope: 0
        outSlope: 0
        tangentMode: 136
        weightedMode: 3
        inWeight: 0.33333334
        outWeight: 0.33333334
      - serializedVersion: 3
        time: 1.8333334
        value: 0.9993022
        inSlope: 0
        outSlope: 0
        tangentMode: 136
        weightedMode: 3
        inWeight: 0.33333334
        outWeight: 0.33333334
      m_PreInfinity: 2
      m_PostInfinity: 2
      m_RotationOrder: 4
    attribute: m_LocalScale.z
    path: 
    classID: 4
    script: {fileID: 0}
  m_EulerEditorCurves: []
  m_HasGenericRootTransform: 0
  m_HasMotionFloatCurves: 0
  m_Events: []
