%YAML 1.1
%TAG !u! tag:unity3d.com,2011:
--- !u!29 &1
OcclusionCullingSettings:
  m_ObjectHideFlags: 0
  serializedVersion: 2
  m_OcclusionBakeSettings:
    smallestOccluder: 5
    smallestHole: 0.25
    backfaceThreshold: 100
  m_SceneGUID: 00000000000000000000000000000000
  m_OcclusionCullingData: {fileID: 0}
--- !u!104 &2
RenderSettings:
  m_ObjectHideFlags: 0
  serializedVersion: 9
  m_Fog: 0
  m_FogColor: {r: 0.5, g: 0.5, b: 0.5, a: 1}
  m_FogMode: 3
  m_FogDensity: 0.01
  m_LinearFogStart: 0
  m_LinearFogEnd: 300
  m_AmbientSkyColor: {r: 0.212, g: 0.227, b: 0.259, a: 1}
  m_AmbientEquatorColor: {r: 0.114, g: 0.125, b: 0.133, a: 1}
  m_AmbientGroundColor: {r: 0.047, g: 0.043, b: 0.035, a: 1}
  m_AmbientIntensity: 1
  m_AmbientMode: 3
  m_SubtractiveShadowColor: {r: 0.42, g: 0.478, b: 0.627, a: 1}
  m_SkyboxMaterial: {fileID: 0}
  m_HaloStrength: 0.5
  m_FlareStrength: 1
  m_FlareFadeSpeed: 3
  m_HaloTexture: {fileID: 0}
  m_SpotCookie: {fileID: 10001, guid: 0000000000000000e000000000000000, type: 0}
  m_DefaultReflectionMode: 0
  m_DefaultReflectionResolution: 128
  m_ReflectionBounces: 1
  m_ReflectionIntensity: 1
  m_CustomReflection: {fileID: 0}
  m_Sun: {fileID: 0}
  m_IndirectSpecularColor: {r: 0, g: 0, b: 0, a: 1}
  m_UseRadianceAmbientProbe: 0
--- !u!157 &3
LightmapSettings:
  m_ObjectHideFlags: 0
  serializedVersion: 11
  m_GIWorkflowMode: 1
  m_GISettings:
    serializedVersion: 2
    m_BounceScale: 1
    m_IndirectOutputScale: 1
    m_AlbedoBoost: 1
    m_EnvironmentLightingMode: 0
    m_EnableBakedLightmaps: 0
    m_EnableRealtimeLightmaps: 0
  m_LightmapEditorSettings:
    serializedVersion: 12
    m_Resolution: 2
    m_BakeResolution: 40
    m_AtlasSize: 1024
    m_AO: 0
    m_AOMaxDistance: 1
    m_CompAOExponent: 1
    m_CompAOExponentDirect: 0
    m_ExtractAmbientOcclusion: 0
    m_Padding: 2
    m_LightmapParameters: {fileID: 0}
    m_LightmapsBakeMode: 1
    m_TextureCompression: 1
    m_FinalGather: 0
    m_FinalGatherFiltering: 1
    m_FinalGatherRayCount: 256
    m_ReflectionCompression: 2
    m_MixedBakeMode: 2
    m_BakeBackend: 1
    m_PVRSampling: 1
    m_PVRDirectSampleCount: 32
    m_PVRSampleCount: 512
    m_PVRBounces: 2
    m_PVREnvironmentSampleCount: 256
    m_PVREnvironmentReferencePointCount: 2048
    m_PVRFilteringMode: 1
    m_PVRDenoiserTypeDirect: 1
    m_PVRDenoiserTypeIndirect: 1
    m_PVRDenoiserTypeAO: 1
    m_PVRFilterTypeDirect: 0
    m_PVRFilterTypeIndirect: 0
    m_PVRFilterTypeAO: 0
    m_PVREnvironmentMIS: 1
    m_PVRCulling: 1
    m_PVRFilteringGaussRadiusDirect: 1
    m_PVRFilteringGaussRadiusIndirect: 5
    m_PVRFilteringGaussRadiusAO: 2
    m_PVRFilteringAtrousPositionSigmaDirect: 0.5
    m_PVRFilteringAtrousPositionSigmaIndirect: 2
    m_PVRFilteringAtrousPositionSigmaAO: 1
    m_ExportTrainingData: 0
    m_TrainingDataDestination: TrainingData
    m_LightProbeSampleCountMultiplier: 4
  m_LightingDataAsset: {fileID: 0}
  m_UseShadowmask: 1
--- !u!196 &4
NavMeshSettings:
  serializedVersion: 2
  m_ObjectHideFlags: 0
  m_BuildSettings:
    serializedVersion: 2
    agentTypeID: 0
    agentRadius: 0.5
    agentHeight: 2
    agentSlope: 45
    agentClimb: 0.4
    ledgeDropHeight: 0
    maxJumpAcrossDistance: 0
    minRegionArea: 2
    manualCellSize: 0
    cellSize: 0.16666667
    manualTileSize: 0
    tileSize: 256
    accuratePlacement: 0
    debug:
      m_Flags: 0
  m_NavMeshData: {fileID: 0}
--- !u!1 &228507508
GameObject:
  m_ObjectHideFlags: 0
  m_CorrespondingSourceObject: {fileID: 0}
  m_PrefabInstance: {fileID: 0}
  m_PrefabAsset: {fileID: 0}
  serializedVersion: 6
  m_Component:
  - component: {fileID: 228507510}
  - component: {fileID: 228507509}
  m_Layer: 0
  m_Name: Example Background
  m_TagString: Untagged
  m_Icon: {fileID: 0}
  m_NavMeshLayer: 0
  m_StaticEditorFlags: 0
  m_IsActive: 1
--- !u!212 &228507509
SpriteRenderer:
  m_ObjectHideFlags: 0
  m_CorrespondingSourceObject: {fileID: 0}
  m_PrefabInstance: {fileID: 0}
  m_PrefabAsset: {fileID: 0}
  m_GameObject: {fileID: 228507508}
  m_Enabled: 1
  m_CastShadows: 0
  m_ReceiveShadows: 0
  m_DynamicOccludee: 1
  m_MotionVectors: 1
  m_LightProbeUsage: 1
  m_ReflectionProbeUsage: 1
  m_RayTracingMode: 0
  m_RenderingLayerMask: 1
  m_RendererPriority: 0
  m_Materials:
  - {fileID: 2100000, guid: 903c7352dda7d41cbad8ce92fb3fa8b5, type: 2}
  m_StaticBatchInfo:
    firstSubMesh: 0
    subMeshCount: 0
  m_StaticBatchRoot: {fileID: 0}
  m_ProbeAnchor: {fileID: 0}
  m_LightProbeVolumeOverride: {fileID: 0}
  m_ScaleInLightmap: 1
  m_ReceiveGI: 1
  m_PreserveUVs: 0
  m_IgnoreNormalsForChartDetection: 0
  m_ImportantGI: 0
  m_StitchLightmapSeams: 1
  m_SelectedEditorRenderState: 0
  m_MinimumChartSize: 4
  m_AutoUVMaxDistance: 0.5
  m_AutoUVMaxAngle: 89
  m_LightmapParameters: {fileID: 0}
  m_SortingLayerID: 0
  m_SortingLayer: 0
  m_SortingOrder: -100
  m_Sprite: {fileID: 10905, guid: 0000000000000000f000000000000000, type: 0}
  m_Color: {r: 0.2588235, g: 0.65792835, b: 1, a: 1}
  m_FlipX: 0
  m_FlipY: 0
  m_DrawMode: 0
  m_Size: {x: 0.3, y: 0.27}
  m_AdaptiveModeThreshold: 0.5
  m_SpriteTileMode: 0
  m_WasSpriteAssigned: 1
  m_MaskInteraction: 0
  m_SpriteSortPoint: 0
--- !u!4 &228507510
Transform:
  m_ObjectHideFlags: 0
  m_CorrespondingSourceObject: {fileID: 0}
  m_PrefabInstance: {fileID: 0}
  m_PrefabAsset: {fileID: 0}
  m_GameObject: {fileID: 228507508}
  m_LocalRotation: {x: 0, y: 0, z: 0, w: 1}
  m_LocalPosition: {x: -3.4957697, y: -0.30375403, z: -0.9921875}
  m_LocalScale: {x: 1000, y: 1000, z: 1}
  m_Children: []
  m_Father: {fileID: 0}
  m_RootOrder: 7
  m_LocalEulerAnglesHint: {x: 0, y: 0, z: 0}
--- !u!1001 &756584782
PrefabInstance:
  m_ObjectHideFlags: 0
  serializedVersion: 2
  m_Modification:
    m_TransformParent: {fileID: 0}
    m_Modifications:
    - target: {fileID: 1509376125505049182, guid: 0f7f62cc6f24f45cd907450ea8d87075,
        type: 3}
      propertyPath: xMin
      value: 25
      objectReference: {fileID: 0}
    - target: {fileID: 1509376125505049182, guid: 0f7f62cc6f24f45cd907450ea8d87075,
        type: 3}
      propertyPath: xMax
      value: 25
      objectReference: {fileID: 0}
    - target: {fileID: 1509376125505049182, guid: 0f7f62cc6f24f45cd907450ea8d87075,
        type: 3}
      propertyPath: yMin
      value: -10
      objectReference: {fileID: 0}
    - target: {fileID: 1509376125505049182, guid: 0f7f62cc6f24f45cd907450ea8d87075,
        type: 3}
      propertyPath: yMax
      value: 10
      objectReference: {fileID: 0}
    - target: {fileID: 1509376125505049182, guid: 0f7f62cc6f24f45cd907450ea8d87075,
        type: 3}
      propertyPath: spawnTime
      value: 0.25
      objectReference: {fileID: 0}
    - target: {fileID: 1509376125505049182, guid: 0f7f62cc6f24f45cd907450ea8d87075,
        type: 3}
      propertyPath: spawnDelay
      value: 0.25
      objectReference: {fileID: 0}
    - target: {fileID: 1509376125505049183, guid: 0f7f62cc6f24f45cd907450ea8d87075,
        type: 3}
      propertyPath: m_Name
      value: Spawner
      objectReference: {fileID: 0}
    - target: {fileID: 1509376125505049183, guid: 0f7f62cc6f24f45cd907450ea8d87075,
        type: 3}
      propertyPath: m_IsActive
      value: 1
      objectReference: {fileID: 0}
    - target: {fileID: 1509376125505049185, guid: 0f7f62cc6f24f45cd907450ea8d87075,
        type: 3}
      propertyPath: m_LocalPosition.x
      value: 2.14
      objectReference: {fileID: 0}
    - target: {fileID: 1509376125505049185, guid: 0f7f62cc6f24f45cd907450ea8d87075,
        type: 3}
      propertyPath: m_LocalPosition.y
      value: -0.01
      objectReference: {fileID: 0}
    - target: {fileID: 1509376125505049185, guid: 0f7f62cc6f24f45cd907450ea8d87075,
        type: 3}
      propertyPath: m_LocalPosition.z
      value: -35.718224
      objectReference: {fileID: 0}
    - target: {fileID: 1509376125505049185, guid: 0f7f62cc6f24f45cd907450ea8d87075,
        type: 3}
      propertyPath: m_LocalRotation.x
      value: 0
      objectReference: {fileID: 0}
    - target: {fileID: 1509376125505049185, guid: 0f7f62cc6f24f45cd907450ea8d87075,
        type: 3}
      propertyPath: m_LocalRotation.y
      value: 0
      objectReference: {fileID: 0}
    - target: {fileID: 1509376125505049185, guid: 0f7f62cc6f24f45cd907450ea8d87075,
        type: 3}
      propertyPath: m_LocalRotation.z
      value: 0
      objectReference: {fileID: 0}
    - target: {fileID: 1509376125505049185, guid: 0f7f62cc6f24f45cd907450ea8d87075,
        type: 3}
      propertyPath: m_LocalRotation.w
      value: 1
      objectReference: {fileID: 0}
    - target: {fileID: 1509376125505049185, guid: 0f7f62cc6f24f45cd907450ea8d87075,
        type: 3}
      propertyPath: m_RootOrder
      value: 1
      objectReference: {fileID: 0}
    - target: {fileID: 1509376125505049185, guid: 0f7f62cc6f24f45cd907450ea8d87075,
        type: 3}
      propertyPath: m_LocalEulerAnglesHint.x
      value: 0
      objectReference: {fileID: 0}
    - target: {fileID: 1509376125505049185, guid: 0f7f62cc6f24f45cd907450ea8d87075,
        type: 3}
      propertyPath: m_LocalEulerAnglesHint.y
      value: 0
      objectReference: {fileID: 0}
    - target: {fileID: 1509376125505049185, guid: 0f7f62cc6f24f45cd907450ea8d87075,
        type: 3}
      propertyPath: m_LocalEulerAnglesHint.z
      value: 0
      objectReference: {fileID: 0}
    m_RemovedComponents:
    - {fileID: 1509376125505049184, guid: 0f7f62cc6f24f45cd907450ea8d87075, type: 3}
  m_SourcePrefab: {fileID: 100100000, guid: 0f7f62cc6f24f45cd907450ea8d87075, type: 3}
--- !u!1 &1018477988 stripped
GameObject:
  m_CorrespondingSourceObject: {fileID: 2308239170580337997, guid: 93515f37d3ee7b7479e9d0c45397174b,
    type: 3}
  m_PrefabInstance: {fileID: 2308239171327748329}
  m_PrefabAsset: {fileID: 0}
--- !u!114 &1018477992
MonoBehaviour:
  m_ObjectHideFlags: 0
  m_CorrespondingSourceObject: {fileID: 0}
  m_PrefabInstance: {fileID: 0}
  m_PrefabAsset: {fileID: 0}
  m_GameObject: {fileID: 1018477988}
  m_Enabled: 1
  m_EditorHideFlags: 0
  m_Script: {fileID: 11500000, guid: b808f63c106e042ff9194fa3e2ca9644, type: 3}
  m_Name: 
  m_EditorClassIdentifier: 
  _renderInSceneView: 1
  _linearLightBlending: 1
  _shadows: 1
  _ambientLight: {r: 0, g: 0, b: 0, a: 1}
  _exposure: 1
  _lightMapScale: 8
  _shadowMapScale: 4
  _minLightPenetration: 0.2
  _shadowCompensation: 1.01
  _fogColor: {r: 1, g: 1, b: 1, a: 0}
  _scatterColor: {r: 0, g: 0, b: 0, a: 0}
  _softHardMix: 0
--- !u!1001 &1542554011
PrefabInstance:
  m_ObjectHideFlags: 0
  serializedVersion: 2
  m_Modification:
    m_TransformParent: {fileID: 0}
    m_Modifications:
    - target: {fileID: 8650869094126685555, guid: 1a8650a41ef1a4c088079acee116ea56,
        type: 3}
      propertyPath: m_LocalPosition.x
      value: -1.63
      objectReference: {fileID: 0}
    - target: {fileID: 8650869094126685555, guid: 1a8650a41ef1a4c088079acee116ea56,
        type: 3}
      propertyPath: m_LocalPosition.y
      value: 0.1
      objectReference: {fileID: 0}
    - target: {fileID: 8650869094126685555, guid: 1a8650a41ef1a4c088079acee116ea56,
        type: 3}
      propertyPath: m_LocalPosition.z
      value: 0
      objectReference: {fileID: 0}
    - target: {fileID: 8650869094126685555, guid: 1a8650a41ef1a4c088079acee116ea56,
        type: 3}
      propertyPath: m_LocalRotation.x
      value: 0
      objectReference: {fileID: 0}
    - target: {fileID: 8650869094126685555, guid: 1a8650a41ef1a4c088079acee116ea56,
        type: 3}
      propertyPath: m_LocalRotation.y
      value: 0
      objectReference: {fileID: 0}
    - target: {fileID: 8650869094126685555, guid: 1a8650a41ef1a4c088079acee116ea56,
        type: 3}
      propertyPath: m_LocalRotation.z
      value: 0
      objectReference: {fileID: 0}
    - target: {fileID: 8650869094126685555, guid: 1a8650a41ef1a4c088079acee116ea56,
        type: 3}
      propertyPath: m_LocalRotation.w
      value: 1
      objectReference: {fileID: 0}
    - target: {fileID: 8650869094126685555, guid: 1a8650a41ef1a4c088079acee116ea56,
        type: 3}
      propertyPath: m_RootOrder
      value: 0
      objectReference: {fileID: 0}
    - target: {fileID: 8650869094126685555, guid: 1a8650a41ef1a4c088079acee116ea56,
        type: 3}
      propertyPath: m_LocalEulerAnglesHint.x
      value: 0
      objectReference: {fileID: 0}
    - target: {fileID: 8650869094126685555, guid: 1a8650a41ef1a4c088079acee116ea56,
        type: 3}
      propertyPath: m_LocalEulerAnglesHint.y
      value: 0
      objectReference: {fileID: 0}
    - target: {fileID: 8650869094126685555, guid: 1a8650a41ef1a4c088079acee116ea56,
        type: 3}
      propertyPath: m_LocalEulerAnglesHint.z
      value: 0
      objectReference: {fileID: 0}
    - target: {fileID: 8650869094126685556, guid: 1a8650a41ef1a4c088079acee116ea56,
        type: 3}
      propertyPath: m_Enabled
      value: 1
      objectReference: {fileID: 0}
    - target: {fileID: 8650869094126685559, guid: 1a8650a41ef1a4c088079acee116ea56,
        type: 3}
      propertyPath: m_Name
      value: BullyBoi
      objectReference: {fileID: 0}
    - target: {fileID: 8650869094126685559, guid: 1a8650a41ef1a4c088079acee116ea56,
        type: 3}
      propertyPath: m_IsActive
      value: 1
      objectReference: {fileID: 0}
    m_RemovedComponents: []
  m_SourcePrefab: {fileID: 100100000, guid: 1a8650a41ef1a4c088079acee116ea56, type: 3}
--- !u!1001 &11734136435098301
PrefabInstance:
  m_ObjectHideFlags: 0
  serializedVersion: 2
  m_Modification:
    m_TransformParent: {fileID: 0}
    m_Modifications:
    - target: {fileID: 1485342840, guid: ffa2066b367b1964cb637217b669f297, type: 3}
      propertyPath: m_SizeDelta.x
      value: 100
      objectReference: {fileID: 0}
    - target: {fileID: 1485342840, guid: ffa2066b367b1964cb637217b669f297, type: 3}
      propertyPath: m_SizeDelta.y
      value: 100
      objectReference: {fileID: 0}
    - target: {fileID: 1485342841, guid: ffa2066b367b1964cb637217b669f297, type: 3}
      propertyPath: _intensity
      value: 1.1
      objectReference: {fileID: 0}
    - target: {fileID: 11734137258864239, guid: ffa2066b367b1964cb637217b669f297,
        type: 3}
      propertyPath: m_LocalPosition.x
      value: -4.41
      objectReference: {fileID: 0}
    - target: {fileID: 11734137258864239, guid: ffa2066b367b1964cb637217b669f297,
        type: 3}
      propertyPath: m_LocalPosition.y
      value: 0.02
      objectReference: {fileID: 0}
    - target: {fileID: 11734137258864239, guid: ffa2066b367b1964cb637217b669f297,
        type: 3}
      propertyPath: m_LocalPosition.z
      value: -0.5688924
      objectReference: {fileID: 0}
    - target: {fileID: 11734137258864239, guid: ffa2066b367b1964cb637217b669f297,
        type: 3}
      propertyPath: m_LocalRotation.x
      value: 0
      objectReference: {fileID: 0}
    - target: {fileID: 11734137258864239, guid: ffa2066b367b1964cb637217b669f297,
        type: 3}
      propertyPath: m_LocalRotation.y
      value: 0
      objectReference: {fileID: 0}
    - target: {fileID: 11734137258864239, guid: ffa2066b367b1964cb637217b669f297,
        type: 3}
      propertyPath: m_LocalRotation.z
      value: 0
      objectReference: {fileID: 0}
    - target: {fileID: 11734137258864239, guid: ffa2066b367b1964cb637217b669f297,
        type: 3}
      propertyPath: m_LocalRotation.w
      value: 1
      objectReference: {fileID: 0}
    - target: {fileID: 11734137258864239, guid: ffa2066b367b1964cb637217b669f297,
        type: 3}
      propertyPath: m_RootOrder
      value: 3
      objectReference: {fileID: 0}
    - target: {fileID: 11734137258864239, guid: ffa2066b367b1964cb637217b669f297,
        type: 3}
      propertyPath: m_LocalEulerAnglesHint.x
      value: 0
      objectReference: {fileID: 0}
    - target: {fileID: 11734137258864239, guid: ffa2066b367b1964cb637217b669f297,
        type: 3}
      propertyPath: m_LocalEulerAnglesHint.y
      value: 0
      objectReference: {fileID: 0}
    - target: {fileID: 11734137258864239, guid: ffa2066b367b1964cb637217b669f297,
        type: 3}
      propertyPath: m_LocalEulerAnglesHint.z
      value: 0
      objectReference: {fileID: 0}
    - target: {fileID: 11734137258864240, guid: ffa2066b367b1964cb637217b669f297,
        type: 3}
      propertyPath: m_Name
      value: Lil Boi
      objectReference: {fileID: 0}
    - target: {fileID: 11734137258864243, guid: ffa2066b367b1964cb637217b669f297,
        type: 3}
      propertyPath: PowerupPrefab
      value: 
      objectReference: {fileID: 2533450616683518420, guid: 721e31e47f5bc7f40885504926b4f6a7,
        type: 3}
    m_RemovedComponents: []
  m_SourcePrefab: {fileID: 100100000, guid: ffa2066b367b1964cb637217b669f297, type: 3}
--- !u!1001 &2139981017834341181
PrefabInstance:
  m_ObjectHideFlags: 0
  serializedVersion: 2
  m_Modification:
    m_TransformParent: {fileID: 0}
    m_Modifications:
    - target: {fileID: 2139981016964090458, guid: d64d3d15729d26a438decac2f57dbc9d,
        type: 3}
      propertyPath: m_LocalPosition.x
      value: -7.55
      objectReference: {fileID: 0}
    - target: {fileID: 2139981016964090458, guid: d64d3d15729d26a438decac2f57dbc9d,
        type: 3}
      propertyPath: m_LocalPosition.y
      value: -1.39
      objectReference: {fileID: 0}
    - target: {fileID: 2139981016964090458, guid: d64d3d15729d26a438decac2f57dbc9d,
        type: 3}
      propertyPath: m_LocalPosition.z
      value: -0.5688924
      objectReference: {fileID: 0}
    - target: {fileID: 2139981016964090458, guid: d64d3d15729d26a438decac2f57dbc9d,
        type: 3}
      propertyPath: m_LocalRotation.x
      value: 0
      objectReference: {fileID: 0}
    - target: {fileID: 2139981016964090458, guid: d64d3d15729d26a438decac2f57dbc9d,
        type: 3}
      propertyPath: m_LocalRotation.y
      value: 0
      objectReference: {fileID: 0}
    - target: {fileID: 2139981016964090458, guid: d64d3d15729d26a438decac2f57dbc9d,
        type: 3}
      propertyPath: m_LocalRotation.z
      value: 0
      objectReference: {fileID: 0}
    - target: {fileID: 2139981016964090458, guid: d64d3d15729d26a438decac2f57dbc9d,
        type: 3}
      propertyPath: m_LocalRotation.w
      value: 1
      objectReference: {fileID: 0}
    - target: {fileID: 2139981016964090458, guid: d64d3d15729d26a438decac2f57dbc9d,
        type: 3}
      propertyPath: m_RootOrder
      value: 2
      objectReference: {fileID: 0}
    - target: {fileID: 2139981016964090458, guid: d64d3d15729d26a438decac2f57dbc9d,
        type: 3}
      propertyPath: m_LocalEulerAnglesHint.x
      value: 0
      objectReference: {fileID: 0}
    - target: {fileID: 2139981016964090458, guid: d64d3d15729d26a438decac2f57dbc9d,
        type: 3}
      propertyPath: m_LocalEulerAnglesHint.y
      value: 0
      objectReference: {fileID: 0}
    - target: {fileID: 2139981016964090458, guid: d64d3d15729d26a438decac2f57dbc9d,
        type: 3}
      propertyPath: m_LocalEulerAnglesHint.z
      value: 0
      objectReference: {fileID: 0}
    - target: {fileID: 2139981016964090459, guid: d64d3d15729d26a438decac2f57dbc9d,
        type: 3}
      propertyPath: m_Materials.Array.data[0]
      value: 
      objectReference: {fileID: 2100000, guid: 903c7352dda7d41cbad8ce92fb3fa8b5, type: 2}
    - target: {fileID: 2139981016964090460, guid: d64d3d15729d26a438decac2f57dbc9d,
        type: 3}
      propertyPath: m_Name
      value: Big Boi
      objectReference: {fileID: 0}
    - target: {fileID: 2139981016964090462, guid: d64d3d15729d26a438decac2f57dbc9d,
        type: 3}
      propertyPath: PowerupPrefab
      value: 
      objectReference: {fileID: 2533450616683518420, guid: 76694263f0b71de4e823ed1bb112c52a,
        type: 3}
    - target: {fileID: 2139981016969189084, guid: d64d3d15729d26a438decac2f57dbc9d,
        type: 3}
      propertyPath: _radius
      value: 2
      objectReference: {fileID: 0}
    - target: {fileID: 2139981016969189084, guid: d64d3d15729d26a438decac2f57dbc9d,
        type: 3}
      propertyPath: _intensity
      value: 0.7
      objectReference: {fileID: 0}
    - target: {fileID: 2139981016969189085, guid: d64d3d15729d26a438decac2f57dbc9d,
        type: 3}
      propertyPath: m_SizeDelta.x
      value: 60
      objectReference: {fileID: 0}
    - target: {fileID: 2139981016969189085, guid: d64d3d15729d26a438decac2f57dbc9d,
        type: 3}
      propertyPath: m_SizeDelta.y
      value: 60
      objectReference: {fileID: 0}
    - target: {fileID: 2139981016969189090, guid: d64d3d15729d26a438decac2f57dbc9d,
        type: 3}
      propertyPath: m_IsActive
      value: 0
      objectReference: {fileID: 0}
    m_RemovedComponents: []
  m_SourcePrefab: {fileID: 100100000, guid: d64d3d15729d26a438decac2f57dbc9d, type: 3}
--- !u!1001 &2308239171327748329
PrefabInstance:
  m_ObjectHideFlags: 0
  serializedVersion: 2
  m_Modification:
    m_TransformParent: {fileID: 0}
    m_Modifications:
    - target: {fileID: 2308239169848729010, guid: 93515f37d3ee7b7479e9d0c45397174b,
        type: 3}
      propertyPath: m_Name
      value: Camera Rig
      objectReference: {fileID: 0}
    - target: {fileID: 2308239169848729012, guid: 93515f37d3ee7b7479e9d0c45397174b,
        type: 3}
      propertyPath: m_LocalPosition.x
      value: 0
      objectReference: {fileID: 0}
    - target: {fileID: 2308239169848729012, guid: 93515f37d3ee7b7479e9d0c45397174b,
        type: 3}
      propertyPath: m_LocalPosition.y
      value: 0
      objectReference: {fileID: 0}
    - target: {fileID: 2308239169848729012, guid: 93515f37d3ee7b7479e9d0c45397174b,
        type: 3}
      propertyPath: m_LocalPosition.z
      value: -10
      objectReference: {fileID: 0}
    - target: {fileID: 2308239169848729012, guid: 93515f37d3ee7b7479e9d0c45397174b,
        type: 3}
      propertyPath: m_LocalRotation.x
      value: 0
      objectReference: {fileID: 0}
    - target: {fileID: 2308239169848729012, guid: 93515f37d3ee7b7479e9d0c45397174b,
        type: 3}
      propertyPath: m_LocalRotation.y
      value: 0
      objectReference: {fileID: 0}
    - target: {fileID: 2308239169848729012, guid: 93515f37d3ee7b7479e9d0c45397174b,
        type: 3}
      propertyPath: m_LocalRotation.z
      value: 0
      objectReference: {fileID: 0}
    - target: {fileID: 2308239169848729012, guid: 93515f37d3ee7b7479e9d0c45397174b,
        type: 3}
      propertyPath: m_LocalRotation.w
      value: 1
      objectReference: {fileID: 0}
    - target: {fileID: 2308239169848729012, guid: 93515f37d3ee7b7479e9d0c45397174b,
        type: 3}
      propertyPath: m_RootOrder
      value: 6
      objectReference: {fileID: 0}
    - target: {fileID: 2308239169848729012, guid: 93515f37d3ee7b7479e9d0c45397174b,
        type: 3}
      propertyPath: m_LocalEulerAnglesHint.x
      value: 0
      objectReference: {fileID: 0}
    - target: {fileID: 2308239169848729012, guid: 93515f37d3ee7b7479e9d0c45397174b,
        type: 3}
      propertyPath: m_LocalEulerAnglesHint.y
      value: 0
      objectReference: {fileID: 0}
    - target: {fileID: 2308239169848729012, guid: 93515f37d3ee7b7479e9d0c45397174b,
        type: 3}
      propertyPath: m_LocalEulerAnglesHint.z
      value: 0
      objectReference: {fileID: 0}
    - target: {fileID: 2308239170580337999, guid: 93515f37d3ee7b7479e9d0c45397174b,
        type: 3}
      propertyPath: m_BackGroundColor.r
      value: 0.4716981
      objectReference: {fileID: 0}
    - target: {fileID: 2308239170580337999, guid: 93515f37d3ee7b7479e9d0c45397174b,
        type: 3}
      propertyPath: m_BackGroundColor.g
      value: 0
      objectReference: {fileID: 0}
    - target: {fileID: 2308239170580337999, guid: 93515f37d3ee7b7479e9d0c45397174b,
        type: 3}
      propertyPath: m_BackGroundColor.b
      value: 0
      objectReference: {fileID: 0}
    m_RemovedComponents: []
  m_SourcePrefab: {fileID: 100100000, guid: 93515f37d3ee7b7479e9d0c45397174b, type: 3}
--- !u!1001 &2533450617507522988
PrefabInstance:
  m_ObjectHideFlags: 0
  serializedVersion: 2
  m_Modification:
    m_TransformParent: {fileID: 0}
    m_Modifications:
    - target: {fileID: 2533450616683518420, guid: 76694263f0b71de4e823ed1bb112c52a,
        type: 3}
      propertyPath: m_Name
      value: BigPowerup
      objectReference: {fileID: 0}
    - target: {fileID: 2533450616683518423, guid: 76694263f0b71de4e823ed1bb112c52a,
        type: 3}
      propertyPath: m_LocalPosition.x
      value: -3.8
      objectReference: {fileID: 0}
    - target: {fileID: 2533450616683518423, guid: 76694263f0b71de4e823ed1bb112c52a,
        type: 3}
      propertyPath: m_LocalPosition.y
      value: 2.45
      objectReference: {fileID: 0}
    - target: {fileID: 2533450616683518423, guid: 76694263f0b71de4e823ed1bb112c52a,
        type: 3}
      propertyPath: m_LocalPosition.z
      value: -0.5688924
      objectReference: {fileID: 0}
    - target: {fileID: 2533450616683518423, guid: 76694263f0b71de4e823ed1bb112c52a,
        type: 3}
      propertyPath: m_LocalRotation.x
      value: 0
      objectReference: {fileID: 0}
    - target: {fileID: 2533450616683518423, guid: 76694263f0b71de4e823ed1bb112c52a,
        type: 3}
      propertyPath: m_LocalRotation.y
      value: 0
      objectReference: {fileID: 0}
    - target: {fileID: 2533450616683518423, guid: 76694263f0b71de4e823ed1bb112c52a,
        type: 3}
      propertyPath: m_LocalRotation.z
      value: 0
      objectReference: {fileID: 0}
    - target: {fileID: 2533450616683518423, guid: 76694263f0b71de4e823ed1bb112c52a,
        type: 3}
      propertyPath: m_LocalRotation.w
      value: 1
      objectReference: {fileID: 0}
    - target: {fileID: 2533450616683518423, guid: 76694263f0b71de4e823ed1bb112c52a,
        type: 3}
      propertyPath: m_RootOrder
      value: 5
      objectReference: {fileID: 0}
    - target: {fileID: 2533450616683518423, guid: 76694263f0b71de4e823ed1bb112c52a,
        type: 3}
      propertyPath: m_LocalEulerAnglesHint.x
      value: 0
      objectReference: {fileID: 0}
    - target: {fileID: 2533450616683518423, guid: 76694263f0b71de4e823ed1bb112c52a,
        type: 3}
      propertyPath: m_LocalEulerAnglesHint.y
      value: 0
      objectReference: {fileID: 0}
    - target: {fileID: 2533450616683518423, guid: 76694263f0b71de4e823ed1bb112c52a,
        type: 3}
      propertyPath: m_LocalEulerAnglesHint.z
      value: 0
      objectReference: {fileID: 0}
    m_RemovedComponents: []
  m_SourcePrefab: {fileID: 100100000, guid: 76694263f0b71de4e823ed1bb112c52a, type: 3}
--- !u!1001 &7926695345810839858
PrefabInstance:
  m_ObjectHideFlags: 0
  serializedVersion: 2
  m_Modification:
    m_TransformParent: {fileID: 0}
    m_Modifications:
    - target: {fileID: 5042412929565462733, guid: 6169d792b10f8a948a851ac223e2f770,
        type: 3}
      propertyPath: m_Name
      value: Rewired Input Manager
      objectReference: {fileID: 0}
    - target: {fileID: 5880568857236510910, guid: 6169d792b10f8a948a851ac223e2f770,
        type: 3}
      propertyPath: _userData.players.Array.size
      value: 3
      objectReference: {fileID: 0}
    - target: {fileID: 5880568857236510910, guid: 6169d792b10f8a948a851ac223e2f770,
        type: 3}
      propertyPath: _userData.players.Array.data[2]._defaultJoystickMaps.Array.size
      value: 1
      objectReference: {fileID: 0}
    - target: {fileID: 5880568857236510910, guid: 6169d792b10f8a948a851ac223e2f770,
        type: 3}
      propertyPath: _userData.players.Array.data[2]._id
      value: 2
      objectReference: {fileID: 0}
    - target: {fileID: 5880568857236510910, guid: 6169d792b10f8a948a851ac223e2f770,
        type: 3}
      propertyPath: _userData.players.Array.data[2]._name
      value: Player1
      objectReference: {fileID: 0}
    - target: {fileID: 5880568857236510910, guid: 6169d792b10f8a948a851ac223e2f770,
        type: 3}
      propertyPath: _userData.players.Array.data[2]._descriptiveName
      value: Player1
      objectReference: {fileID: 0}
    - target: {fileID: 5880568857236510910, guid: 6169d792b10f8a948a851ac223e2f770,
        type: 3}
      propertyPath: _userData.players.Array.data[2]._startPlaying
      value: 1
      objectReference: {fileID: 0}
    - target: {fileID: 5880568857236510910, guid: 6169d792b10f8a948a851ac223e2f770,
        type: 3}
      propertyPath: _userData.players.Array.data[2]._assignKeyboardOnStart
      value: 1
      objectReference: {fileID: 0}
    - target: {fileID: 5880568857236510910, guid: 6169d792b10f8a948a851ac223e2f770,
        type: 3}
      propertyPath: _userData.players.Array.data[2]._controllerMapLayoutManagerSettings._enabled
      value: 1
      objectReference: {fileID: 0}
    - target: {fileID: 5880568857236510910, guid: 6169d792b10f8a948a851ac223e2f770,
        type: 3}
      propertyPath: _userData.players.Array.data[2]._controllerMapLayoutManagerSettings._loadFromUserDataStore
      value: 1
      objectReference: {fileID: 0}
    - target: {fileID: 5880568857236510910, guid: 6169d792b10f8a948a851ac223e2f770,
        type: 3}
      propertyPath: _userData.players.Array.data[2]._controllerMapEnablerSettings._enabled
      value: 1
      objectReference: {fileID: 0}
    - target: {fileID: 5880568857236510910, guid: 6169d792b10f8a948a851ac223e2f770,
        type: 3}
      propertyPath: _userData.playerIdCounter
      value: 3
      objectReference: {fileID: 0}
    - target: {fileID: 5880568857236510910, guid: 6169d792b10f8a948a851ac223e2f770,
        type: 3}
      propertyPath: _userData.players.Array.data[2]._defaultJoystickMaps.Array.data[0]._enabled
      value: 1
      objectReference: {fileID: 0}
    - target: {fileID: 6010516712096227785, guid: 6169d792b10f8a948a851ac223e2f770,
        type: 3}
      propertyPath: m_LocalPosition.x
      value: 0
      objectReference: {fileID: 0}
    - target: {fileID: 6010516712096227785, guid: 6169d792b10f8a948a851ac223e2f770,
        type: 3}
      propertyPath: m_LocalPosition.y
      value: 0
      objectReference: {fileID: 0}
    - target: {fileID: 6010516712096227785, guid: 6169d792b10f8a948a851ac223e2f770,
        type: 3}
      propertyPath: m_LocalPosition.z
      value: 0
      objectReference: {fileID: 0}
    - target: {fileID: 6010516712096227785, guid: 6169d792b10f8a948a851ac223e2f770,
        type: 3}
      propertyPath: m_LocalRotation.x
      value: 0
      objectReference: {fileID: 0}
    - target: {fileID: 6010516712096227785, guid: 6169d792b10f8a948a851ac223e2f770,
        type: 3}
      propertyPath: m_LocalRotation.y
      value: 0
      objectReference: {fileID: 0}
    - target: {fileID: 6010516712096227785, guid: 6169d792b10f8a948a851ac223e2f770,
        type: 3}
      propertyPath: m_LocalRotation.z
      value: 0
      objectReference: {fileID: 0}
    - target: {fileID: 6010516712096227785, guid: 6169d792b10f8a948a851ac223e2f770,
        type: 3}
      propertyPath: m_LocalRotation.w
      value: 1
      objectReference: {fileID: 0}
    - target: {fileID: 6010516712096227785, guid: 6169d792b10f8a948a851ac223e2f770,
        type: 3}
      propertyPath: m_RootOrder
      value: 4
      objectReference: {fileID: 0}
    - target: {fileID: 6010516712096227785, guid: 6169d792b10f8a948a851ac223e2f770,
        type: 3}
      propertyPath: m_LocalEulerAnglesHint.x
      value: 0
      objectReference: {fileID: 0}
    - target: {fileID: 6010516712096227785, guid: 6169d792b10f8a948a851ac223e2f770,
        type: 3}
      propertyPath: m_LocalEulerAnglesHint.y
      value: 0
      objectReference: {fileID: 0}
    - target: {fileID: 6010516712096227785, guid: 6169d792b10f8a948a851ac223e2f770,
        type: 3}
      propertyPath: m_LocalEulerAnglesHint.z
      value: 0
      objectReference: {fileID: 0}
    m_RemovedComponents: []
  m_SourcePrefab: {fileID: 100100000, guid: 6169d792b10f8a948a851ac223e2f770, type: 3}
