%YAML 1.1
%TAG !u! tag:unity3d.com,2011:
--- !u!29 &1
OcclusionCullingSettings:
  m_ObjectHideFlags: 0
  serializedVersion: 2
  m_OcclusionBakeSettings:
    smallestOccluder: 5
    smallestHole: 0.25
    backfaceThreshold: 100
  m_SceneGUID: 00000000000000000000000000000000
  m_OcclusionCullingData: {fileID: 0}
--- !u!104 &2
RenderSettings:
  m_ObjectHideFlags: 0
  serializedVersion: 9
  m_Fog: 0
  m_FogColor: {r: 0.5, g: 0.5, b: 0.5, a: 1}
  m_FogMode: 3
  m_FogDensity: 0.01
  m_LinearFogStart: 0
  m_LinearFogEnd: 300
  m_AmbientSkyColor: {r: 0.212, g: 0.227, b: 0.259, a: 1}
  m_AmbientEquatorColor: {r: 0.114, g: 0.125, b: 0.133, a: 1}
  m_AmbientGroundColor: {r: 0.047, g: 0.043, b: 0.035, a: 1}
  m_AmbientIntensity: 1
  m_AmbientMode: 3
  m_SubtractiveShadowColor: {r: 0.42, g: 0.478, b: 0.627, a: 1}
  m_SkyboxMaterial: {fileID: 0}
  m_HaloStrength: 0.5
  m_FlareStrength: 1
  m_FlareFadeSpeed: 3
  m_HaloTexture: {fileID: 0}
  m_SpotCookie: {fileID: 10001, guid: 0000000000000000e000000000000000, type: 0}
  m_DefaultReflectionMode: 0
  m_DefaultReflectionResolution: 128
  m_ReflectionBounces: 1
  m_ReflectionIntensity: 1
  m_CustomReflection: {fileID: 0}
  m_Sun: {fileID: 0}
  m_IndirectSpecularColor: {r: 0, g: 0, b: 0, a: 1}
  m_UseRadianceAmbientProbe: 0
--- !u!157 &3
LightmapSettings:
  m_ObjectHideFlags: 0
  serializedVersion: 11
  m_GIWorkflowMode: 1
  m_GISettings:
    serializedVersion: 2
    m_BounceScale: 1
    m_IndirectOutputScale: 1
    m_AlbedoBoost: 1
    m_EnvironmentLightingMode: 0
    m_EnableBakedLightmaps: 0
    m_EnableRealtimeLightmaps: 0
  m_LightmapEditorSettings:
    serializedVersion: 12
    m_Resolution: 2
    m_BakeResolution: 40
    m_AtlasSize: 1024
    m_AO: 0
    m_AOMaxDistance: 1
    m_CompAOExponent: 1
    m_CompAOExponentDirect: 0
    m_ExtractAmbientOcclusion: 0
    m_Padding: 2
    m_LightmapParameters: {fileID: 0}
    m_LightmapsBakeMode: 1
    m_TextureCompression: 1
    m_FinalGather: 0
    m_FinalGatherFiltering: 1
    m_FinalGatherRayCount: 256
    m_ReflectionCompression: 2
    m_MixedBakeMode: 2
    m_BakeBackend: 1
    m_PVRSampling: 1
    m_PVRDirectSampleCount: 32
    m_PVRSampleCount: 512
    m_PVRBounces: 2
    m_PVREnvironmentSampleCount: 256
    m_PVREnvironmentReferencePointCount: 2048
    m_PVRFilteringMode: 1
    m_PVRDenoiserTypeDirect: 1
    m_PVRDenoiserTypeIndirect: 1
    m_PVRDenoiserTypeAO: 1
    m_PVRFilterTypeDirect: 0
    m_PVRFilterTypeIndirect: 0
    m_PVRFilterTypeAO: 0
    m_PVREnvironmentMIS: 1
    m_PVRCulling: 1
    m_PVRFilteringGaussRadiusDirect: 1
    m_PVRFilteringGaussRadiusIndirect: 5
    m_PVRFilteringGaussRadiusAO: 2
    m_PVRFilteringAtrousPositionSigmaDirect: 0.5
    m_PVRFilteringAtrousPositionSigmaIndirect: 2
    m_PVRFilteringAtrousPositionSigmaAO: 1
    m_ExportTrainingData: 0
    m_TrainingDataDestination: TrainingData
    m_LightProbeSampleCountMultiplier: 4
  m_LightingDataAsset: {fileID: 0}
  m_UseShadowmask: 1
--- !u!196 &4
NavMeshSettings:
  serializedVersion: 2
  m_ObjectHideFlags: 0
  m_BuildSettings:
    serializedVersion: 2
    agentTypeID: 0
    agentRadius: 0.5
    agentHeight: 2
    agentSlope: 45
    agentClimb: 0.4
    ledgeDropHeight: 0
    maxJumpAcrossDistance: 0
    minRegionArea: 2
    manualCellSize: 0
    cellSize: 0.16666667
    manualTileSize: 0
    tileSize: 256
    accuratePlacement: 0
    debug:
      m_Flags: 0
  m_NavMeshData: {fileID: 0}
--- !u!1 &165818306
GameObject:
  m_ObjectHideFlags: 0
  m_CorrespondingSourceObject: {fileID: 0}
  m_PrefabInstance: {fileID: 0}
  m_PrefabAsset: {fileID: 0}
  serializedVersion: 6
  m_Component:
  - component: {fileID: 165818309}
  - component: {fileID: 165818308}
  - component: {fileID: 165818307}
  m_Layer: 0
  m_Name: Main Camera
  m_TagString: MainCamera
  m_Icon: {fileID: 0}
  m_NavMeshLayer: 0
  m_StaticEditorFlags: 0
  m_IsActive: 1
--- !u!81 &165818307
AudioListener:
  m_ObjectHideFlags: 0
  m_CorrespondingSourceObject: {fileID: 0}
  m_PrefabInstance: {fileID: 0}
  m_PrefabAsset: {fileID: 0}
  m_GameObject: {fileID: 165818306}
  m_Enabled: 1
--- !u!20 &165818308
Camera:
  m_ObjectHideFlags: 0
  m_CorrespondingSourceObject: {fileID: 0}
  m_PrefabInstance: {fileID: 0}
  m_PrefabAsset: {fileID: 0}
  m_GameObject: {fileID: 165818306}
  m_Enabled: 1
  serializedVersion: 2
  m_ClearFlags: 1
  m_BackGroundColor: {r: 0.038314342, g: 0.10045834, b: 0.1981132, a: 0}
  m_projectionMatrixMode: 1
  m_GateFitMode: 2
  m_FOVAxisMode: 0
  m_SensorSize: {x: 36, y: 24}
  m_LensShift: {x: 0, y: 0}
  m_FocalLength: 50
  m_NormalizedViewPortRect:
    serializedVersion: 2
    x: 0
    y: 0
    width: 1
    height: 1
  near clip plane: 0.3
  far clip plane: 1000
  field of view: 60
  orthographic: 1
  orthographic size: 5
  m_Depth: -1
  m_CullingMask:
    serializedVersion: 2
    m_Bits: 4294967295
  m_RenderingPath: -1
  m_TargetTexture: {fileID: 0}
  m_TargetDisplay: 0
  m_TargetEye: 3
  m_HDR: 1
  m_AllowMSAA: 1
  m_AllowDynamicResolution: 0
  m_ForceIntoRT: 0
  m_OcclusionCulling: 1
  m_StereoConvergence: 10
  m_StereoSeparation: 0.022
--- !u!4 &165818309
Transform:
  m_ObjectHideFlags: 0
  m_CorrespondingSourceObject: {fileID: 0}
  m_PrefabInstance: {fileID: 0}
  m_PrefabAsset: {fileID: 0}
  m_GameObject: {fileID: 165818306}
  m_LocalRotation: {x: 0, y: 0, z: 0, w: 1}
  m_LocalPosition: {x: 0, y: 0, z: -10}
  m_LocalScale: {x: 1, y: 1, z: 1}
  m_Children: []
  m_Father: {fileID: 0}
  m_RootOrder: 0
  m_LocalEulerAnglesHint: {x: 0, y: 0, z: 0}
--- !u!1001 &1181003837784486375
PrefabInstance:
  m_ObjectHideFlags: 0
  serializedVersion: 2
  m_Modification:
    m_TransformParent: {fileID: 0}
    m_Modifications:
    - target: {fileID: 1181003838416946257, guid: d89134ef2c4a910479128146b99d30a3,
        type: 3}
      propertyPath: m_LocalPosition.x
      value: -0.34221277
      objectReference: {fileID: 0}
    - target: {fileID: 1181003838416946257, guid: d89134ef2c4a910479128146b99d30a3,
        type: 3}
      propertyPath: m_LocalPosition.y
      value: 0.0154892085
      objectReference: {fileID: 0}
    - target: {fileID: 1181003838416946257, guid: d89134ef2c4a910479128146b99d30a3,
        type: 3}
      propertyPath: m_LocalPosition.z
      value: -117.37305
      objectReference: {fileID: 0}
    - target: {fileID: 1181003838416946257, guid: d89134ef2c4a910479128146b99d30a3,
        type: 3}
      propertyPath: m_LocalRotation.x
      value: 0
      objectReference: {fileID: 0}
    - target: {fileID: 1181003838416946257, guid: d89134ef2c4a910479128146b99d30a3,
        type: 3}
      propertyPath: m_LocalRotation.y
      value: 0
      objectReference: {fileID: 0}
    - target: {fileID: 1181003838416946257, guid: d89134ef2c4a910479128146b99d30a3,
        type: 3}
      propertyPath: m_LocalRotation.z
      value: 0
      objectReference: {fileID: 0}
    - target: {fileID: 1181003838416946257, guid: d89134ef2c4a910479128146b99d30a3,
        type: 3}
      propertyPath: m_LocalRotation.w
      value: 1
      objectReference: {fileID: 0}
    - target: {fileID: 1181003838416946257, guid: d89134ef2c4a910479128146b99d30a3,
        type: 3}
      propertyPath: m_RootOrder
      value: 4
      objectReference: {fileID: 0}
    - target: {fileID: 1181003838416946257, guid: d89134ef2c4a910479128146b99d30a3,
        type: 3}
      propertyPath: m_LocalEulerAnglesHint.x
      value: 0
      objectReference: {fileID: 0}
    - target: {fileID: 1181003838416946257, guid: d89134ef2c4a910479128146b99d30a3,
        type: 3}
      propertyPath: m_LocalEulerAnglesHint.y
      value: 0
      objectReference: {fileID: 0}
    - target: {fileID: 1181003838416946257, guid: d89134ef2c4a910479128146b99d30a3,
        type: 3}
      propertyPath: m_LocalEulerAnglesHint.z
      value: 0
      objectReference: {fileID: 0}
    - target: {fileID: 1181003838416946260, guid: d89134ef2c4a910479128146b99d30a3,
        type: 3}
      propertyPath: m_Name
      value: Death Particle Effect
      objectReference: {fileID: 0}
    m_RemovedComponents: []
  m_SourcePrefab: {fileID: 100100000, guid: d89134ef2c4a910479128146b99d30a3, type: 3}
--- !u!1001 &3766852490901496395
PrefabInstance:
  m_ObjectHideFlags: 0
  serializedVersion: 2
  m_Modification:
    m_TransformParent: {fileID: 0}
    m_Modifications:
    - target: {fileID: 3766852491645293898, guid: 3f5e6b78864af314787e16b98ae1bcc1,
        type: 3}
      propertyPath: m_Name
      value: Red Blood Cells Particle Effect
      objectReference: {fileID: 0}
    - target: {fileID: 3766852491645293903, guid: 3f5e6b78864af314787e16b98ae1bcc1,
        type: 3}
      propertyPath: m_LocalPosition.x
      value: 0.837082
      objectReference: {fileID: 0}
    - target: {fileID: 3766852491645293903, guid: 3f5e6b78864af314787e16b98ae1bcc1,
        type: 3}
      propertyPath: m_LocalPosition.y
      value: 0.30980775
      objectReference: {fileID: 0}
    - target: {fileID: 3766852491645293903, guid: 3f5e6b78864af314787e16b98ae1bcc1,
        type: 3}
      propertyPath: m_LocalPosition.z
      value: -95.58984
      objectReference: {fileID: 0}
    - target: {fileID: 3766852491645293903, guid: 3f5e6b78864af314787e16b98ae1bcc1,
        type: 3}
      propertyPath: m_LocalRotation.x
      value: 0
      objectReference: {fileID: 0}
    - target: {fileID: 3766852491645293903, guid: 3f5e6b78864af314787e16b98ae1bcc1,
        type: 3}
      propertyPath: m_LocalRotation.y
      value: 0
      objectReference: {fileID: 0}
    - target: {fileID: 3766852491645293903, guid: 3f5e6b78864af314787e16b98ae1bcc1,
        type: 3}
      propertyPath: m_LocalRotation.z
      value: 0
      objectReference: {fileID: 0}
    - target: {fileID: 3766852491645293903, guid: 3f5e6b78864af314787e16b98ae1bcc1,
        type: 3}
      propertyPath: m_LocalRotation.w
      value: 1
      objectReference: {fileID: 0}
    - target: {fileID: 3766852491645293903, guid: 3f5e6b78864af314787e16b98ae1bcc1,
        type: 3}
      propertyPath: m_RootOrder
      value: 1
      objectReference: {fileID: 0}
    - target: {fileID: 3766852491645293903, guid: 3f5e6b78864af314787e16b98ae1bcc1,
        type: 3}
      propertyPath: m_LocalEulerAnglesHint.x
      value: 0
      objectReference: {fileID: 0}
    - target: {fileID: 3766852491645293903, guid: 3f5e6b78864af314787e16b98ae1bcc1,
        type: 3}
      propertyPath: m_LocalEulerAnglesHint.y
      value: 0
      objectReference: {fileID: 0}
    - target: {fileID: 3766852491645293903, guid: 3f5e6b78864af314787e16b98ae1bcc1,
        type: 3}
      propertyPath: m_LocalEulerAnglesHint.z
      value: 0
      objectReference: {fileID: 0}
    m_RemovedComponents: []
  m_SourcePrefab: {fileID: 100100000, guid: 3f5e6b78864af314787e16b98ae1bcc1, type: 3}
--- !u!1001 &6912730533121928733
PrefabInstance:
  m_ObjectHideFlags: 0
  serializedVersion: 2
  m_Modification:
    m_TransformParent: {fileID: 0}
    m_Modifications:
    - target: {fileID: 1911986590928406813, guid: 4869db0b968a9434fa8101e70a0c0f5e,
        type: 3}
      propertyPath: m_LocalPosition.x
      value: 0.9183614
      objectReference: {fileID: 0}
    - target: {fileID: 1911986590928406813, guid: 4869db0b968a9434fa8101e70a0c0f5e,
        type: 3}
      propertyPath: m_LocalPosition.y
      value: 0.09735958
      objectReference: {fileID: 0}
    - target: {fileID: 1911986590928406813, guid: 4869db0b968a9434fa8101e70a0c0f5e,
        type: 3}
      propertyPath: m_LocalPosition.z
      value: -125.1276
      objectReference: {fileID: 0}
    - target: {fileID: 1911986590928406813, guid: 4869db0b968a9434fa8101e70a0c0f5e,
        type: 3}
      propertyPath: m_LocalRotation.x
      value: 0
      objectReference: {fileID: 0}
    - target: {fileID: 1911986590928406813, guid: 4869db0b968a9434fa8101e70a0c0f5e,
        type: 3}
      propertyPath: m_LocalRotation.y
      value: 0
      objectReference: {fileID: 0}
    - target: {fileID: 1911986590928406813, guid: 4869db0b968a9434fa8101e70a0c0f5e,
        type: 3}
      propertyPath: m_LocalRotation.z
      value: 0
      objectReference: {fileID: 0}
    - target: {fileID: 1911986590928406813, guid: 4869db0b968a9434fa8101e70a0c0f5e,
        type: 3}
      propertyPath: m_LocalRotation.w
      value: 1
      objectReference: {fileID: 0}
    - target: {fileID: 1911986590928406813, guid: 4869db0b968a9434fa8101e70a0c0f5e,
        type: 3}
      propertyPath: m_RootOrder
      value: 6
      objectReference: {fileID: 0}
    - target: {fileID: 1911986590928406813, guid: 4869db0b968a9434fa8101e70a0c0f5e,
        type: 3}
      propertyPath: m_LocalEulerAnglesHint.x
      value: 0
      objectReference: {fileID: 0}
    - target: {fileID: 1911986590928406813, guid: 4869db0b968a9434fa8101e70a0c0f5e,
        type: 3}
      propertyPath: m_LocalEulerAnglesHint.y
      value: 0
      objectReference: {fileID: 0}
    - target: {fileID: 1911986590928406813, guid: 4869db0b968a9434fa8101e70a0c0f5e,
        type: 3}
      propertyPath: m_LocalEulerAnglesHint.z
      value: 0
      objectReference: {fileID: 0}
    - target: {fileID: 5215096662704120926, guid: 4869db0b968a9434fa8101e70a0c0f5e,
        type: 3}
      propertyPath: m_Name
      value: Heart Explosion Particle Effect
      objectReference: {fileID: 0}
    m_RemovedComponents: []
  m_SourcePrefab: {fileID: 100100000, guid: 4869db0b968a9434fa8101e70a0c0f5e, type: 3}
--- !u!1001 &6950013935549967407
PrefabInstance:
  m_ObjectHideFlags: 0
  serializedVersion: 2
  m_Modification:
    m_TransformParent: {fileID: 0}
    m_Modifications:
    - target: {fileID: 2224698582511393288, guid: 731a2a8eb487e9545ba8944fa0d62dc3,
        type: 3}
      propertyPath: m_Name
      value: Little Big Boom Particle Effect
      objectReference: {fileID: 0}
    - target: {fileID: 8717712302556564104, guid: 731a2a8eb487e9545ba8944fa0d62dc3,
        type: 3}
      propertyPath: m_LocalPosition.x
      value: 0.15739654
      objectReference: {fileID: 0}
    - target: {fileID: 8717712302556564104, guid: 731a2a8eb487e9545ba8944fa0d62dc3,
        type: 3}
      propertyPath: m_LocalPosition.y
      value: -0.9331035
      objectReference: {fileID: 0}
    - target: {fileID: 8717712302556564104, guid: 731a2a8eb487e9545ba8944fa0d62dc3,
        type: 3}
      propertyPath: m_LocalPosition.z
      value: -110.022865
      objectReference: {fileID: 0}
    - target: {fileID: 8717712302556564104, guid: 731a2a8eb487e9545ba8944fa0d62dc3,
        type: 3}
      propertyPath: m_LocalRotation.x
      value: 0
      objectReference: {fileID: 0}
    - target: {fileID: 8717712302556564104, guid: 731a2a8eb487e9545ba8944fa0d62dc3,
        type: 3}
      propertyPath: m_LocalRotation.y
      value: 0
      objectReference: {fileID: 0}
    - target: {fileID: 8717712302556564104, guid: 731a2a8eb487e9545ba8944fa0d62dc3,
        type: 3}
      propertyPath: m_LocalRotation.z
      value: 0
      objectReference: {fileID: 0}
    - target: {fileID: 8717712302556564104, guid: 731a2a8eb487e9545ba8944fa0d62dc3,
        type: 3}
      propertyPath: m_LocalRotation.w
      value: 1
      objectReference: {fileID: 0}
    - target: {fileID: 8717712302556564104, guid: 731a2a8eb487e9545ba8944fa0d62dc3,
        type: 3}
      propertyPath: m_RootOrder
      value: 3
      objectReference: {fileID: 0}
    - target: {fileID: 8717712302556564104, guid: 731a2a8eb487e9545ba8944fa0d62dc3,
        type: 3}
      propertyPath: m_LocalEulerAnglesHint.x
      value: 0
      objectReference: {fileID: 0}
    - target: {fileID: 8717712302556564104, guid: 731a2a8eb487e9545ba8944fa0d62dc3,
        type: 3}
      propertyPath: m_LocalEulerAnglesHint.y
      value: 0
      objectReference: {fileID: 0}
    - target: {fileID: 8717712302556564104, guid: 731a2a8eb487e9545ba8944fa0d62dc3,
        type: 3}
      propertyPath: m_LocalEulerAnglesHint.z
      value: 0
      objectReference: {fileID: 0}
    m_RemovedComponents: []
  m_SourcePrefab: {fileID: 100100000, guid: 731a2a8eb487e9545ba8944fa0d62dc3, type: 3}
--- !u!1001 &8868758508068992071
PrefabInstance:
  m_ObjectHideFlags: 0
  serializedVersion: 2
  m_Modification:
    m_TransformParent: {fileID: 0}
    m_Modifications:
    - target: {fileID: 8868758507560395546, guid: a3df64d20eb73374d89efe447e8ad83c,
        type: 3}
      propertyPath: m_Name
      value: Big Big Particle Effect
      objectReference: {fileID: 0}
    - target: {fileID: 8868758507560395559, guid: a3df64d20eb73374d89efe447e8ad83c,
        type: 3}
      propertyPath: m_LocalPosition.x
      value: -0.80318934
      objectReference: {fileID: 0}
    - target: {fileID: 8868758507560395559, guid: a3df64d20eb73374d89efe447e8ad83c,
        type: 3}
      propertyPath: m_LocalPosition.y
      value: -0.016891485
      objectReference: {fileID: 0}
    - target: {fileID: 8868758507560395559, guid: a3df64d20eb73374d89efe447e8ad83c,
        type: 3}
      propertyPath: m_LocalPosition.z
      value: -116.63672
      objectReference: {fileID: 0}
    - target: {fileID: 8868758507560395559, guid: a3df64d20eb73374d89efe447e8ad83c,
        type: 3}
      propertyPath: m_LocalRotation.x
      value: 0
      objectReference: {fileID: 0}
    - target: {fileID: 8868758507560395559, guid: a3df64d20eb73374d89efe447e8ad83c,
        type: 3}
      propertyPath: m_LocalRotation.y
      value: 0
      objectReference: {fileID: 0}
    - target: {fileID: 8868758507560395559, guid: a3df64d20eb73374d89efe447e8ad83c,
        type: 3}
      propertyPath: m_LocalRotation.z
      value: 0
      objectReference: {fileID: 0}
    - target: {fileID: 8868758507560395559, guid: a3df64d20eb73374d89efe447e8ad83c,
        type: 3}
      propertyPath: m_LocalRotation.w
      value: 1
      objectReference: {fileID: 0}
    - target: {fileID: 8868758507560395559, guid: a3df64d20eb73374d89efe447e8ad83c,
        type: 3}
      propertyPath: m_RootOrder
      value: 2
      objectReference: {fileID: 0}
    - target: {fileID: 8868758507560395559, guid: a3df64d20eb73374d89efe447e8ad83c,
        type: 3}
      propertyPath: m_LocalEulerAnglesHint.x
      value: 0
      objectReference: {fileID: 0}
    - target: {fileID: 8868758507560395559, guid: a3df64d20eb73374d89efe447e8ad83c,
        type: 3}
      propertyPath: m_LocalEulerAnglesHint.y
      value: 0
      objectReference: {fileID: 0}
    - target: {fileID: 8868758507560395559, guid: a3df64d20eb73374d89efe447e8ad83c,
        type: 3}
      propertyPath: m_LocalEulerAnglesHint.z
      value: 0
      objectReference: {fileID: 0}
    m_RemovedComponents: []
  m_SourcePrefab: {fileID: 100100000, guid: a3df64d20eb73374d89efe447e8ad83c, type: 3}
--- !u!1001 &8917648797310577707
PrefabInstance:
  m_ObjectHideFlags: 0
  serializedVersion: 2
  m_Modification:
    m_TransformParent: {fileID: 0}
    m_Modifications:
    - target: {fileID: 8917648795897622403, guid: 2b4428294708acd4aa520bcb88aa4ac4,
        type: 3}
      propertyPath: m_LocalPosition.x
      value: -0.9811807
      objectReference: {fileID: 0}
    - target: {fileID: 8917648795897622403, guid: 2b4428294708acd4aa520bcb88aa4ac4,
        type: 3}
      propertyPath: m_LocalPosition.y
      value: 0.6715628
      objectReference: {fileID: 0}
    - target: {fileID: 8917648795897622403, guid: 2b4428294708acd4aa520bcb88aa4ac4,
        type: 3}
      propertyPath: m_LocalPosition.z
      value: -121.35404
      objectReference: {fileID: 0}
    - target: {fileID: 8917648795897622403, guid: 2b4428294708acd4aa520bcb88aa4ac4,
        type: 3}
      propertyPath: m_LocalRotation.x
      value: 0
      objectReference: {fileID: 0}
    - target: {fileID: 8917648795897622403, guid: 2b4428294708acd4aa520bcb88aa4ac4,
        type: 3}
      propertyPath: m_LocalRotation.y
      value: 0
      objectReference: {fileID: 0}
    - target: {fileID: 8917648795897622403, guid: 2b4428294708acd4aa520bcb88aa4ac4,
        type: 3}
      propertyPath: m_LocalRotation.z
      value: 0
      objectReference: {fileID: 0}
    - target: {fileID: 8917648795897622403, guid: 2b4428294708acd4aa520bcb88aa4ac4,
        type: 3}
      propertyPath: m_LocalRotation.w
      value: 1
      objectReference: {fileID: 0}
    - target: {fileID: 8917648795897622403, guid: 2b4428294708acd4aa520bcb88aa4ac4,
        type: 3}
      propertyPath: m_RootOrder
      value: 5
      objectReference: {fileID: 0}
    - target: {fileID: 8917648795897622403, guid: 2b4428294708acd4aa520bcb88aa4ac4,
        type: 3}
      propertyPath: m_LocalEulerAnglesHint.x
      value: 0
      objectReference: {fileID: 0}
    - target: {fileID: 8917648795897622403, guid: 2b4428294708acd4aa520bcb88aa4ac4,
        type: 3}
      propertyPath: m_LocalEulerAnglesHint.y
      value: 0
      objectReference: {fileID: 0}
    - target: {fileID: 8917648795897622403, guid: 2b4428294708acd4aa520bcb88aa4ac4,
        type: 3}
      propertyPath: m_LocalEulerAnglesHint.z
      value: 0
      objectReference: {fileID: 0}
    - target: {fileID: 8917648795897622414, guid: 2b4428294708acd4aa520bcb88aa4ac4,
        type: 3}
      propertyPath: m_Name
      value: Little Death Particle Effect
      objectReference: {fileID: 0}
    m_RemovedComponents: []
  m_SourcePrefab: {fileID: 100100000, guid: 2b4428294708acd4aa520bcb88aa4ac4, type: 3}
